{
  "proxies": [
    { "ip": "37.120.169.116:8080", "active": true },
    { "ip": "212.211.151.176:80", "active": true },
    { "ip": "195.201.61.51:8000", "active": true },
    { "ip": "46.101.216.246:3128", "active": true },
    { "ip": "165.227.173.87:4368", "active": true },
    { "ip": "78.47.104.35:3128", "active": true },
    { "ip": "176.9.63.62:3128", "active": true },
    { "ip": "173.249.30.165:3128", "active": true },
    { "ip": "159.69.66.224:8080", "active": true },
    { "ip": "188.166.162.1:3128", "active": true },
    { "ip": "156.67.172.185:3128", "active": true },
    { "ip": "159.89.28.169:3128", "active": true }
  ]
}
